module go-gorm

go 1.19

require (
	gorm.io/driver/mysql v1.5.1
	gorm.io/gorm v1.25.1
)

require (
	github.com/go-sql-driver/mysql v1.7.0 // indirect
	github.com/jinzhu/inflection v1.0.0 // indirect
	github.com/jinzhu/now v1.1.5 // indirect
)
